{
  "action": "addRolePrivilege",
  "body": {
    "securityToken": "1507614480999",
    "rolePrivileges": [
      {
        "role": "NetworkUser",
        "privilege": "AddDeviceUser"
      },
      {
        "role": "NetworkUser",
        "privilege": "DeleteDeviceUser"
      },
      {
        "role": "NetworkUser",
        "privilege": "ModifyDeviceUser"
      },
      {
        "role": "NetworkUser",
        "privilege": "ModifyNetwork"
      },
      {
        "role": "NetworkUser",
        "privilege": "ModifyNetworkUser"
      },
      {
        "role": "NetworkUser",
        "privilege": "ViewDeviceUser"
      },
      {
        "role": "NetworkUser",
        "privilege": "ViewNetwork"
      },
      {
        "role": "NetworkUser",
        "privilege": "ViewNetworkUser"
      },
      {
        "role": "ServiceUser",
        "privilege": "AddDeviceGroup"
      },
      {
        "role": "ServiceUser",
        "privilege": "AddDeviceUser"
      },
      {
        "role": "ServiceUser",
        "privilege": "AddHardwareProfile"
      },
      {
        "role": "ServiceUser",
        "privilege": "AddNetwork"
      },
      {
        "role": "ServiceUser",
        "privilege": "AddNetworkUser"
      },
      {
        "role": "ServiceUser",
        "privilege": "AddWiFi"
      },
      {
        "role": "ServiceUser",
        "privilege": "AssignDevicesToHP"
      },
      {
        "role": "ServiceUser",
        "privilege": "DeleteDeviceGroup"
      },
      {
        "role": "ServiceUser",
        "privilege": "DeleteDeviceUser"
      },
      {
        "role": "ServiceUser",
        "privilege": "DeleteHardwareProfile"
      },
      {
        "role": "ServiceUser",
        "privilege": "DeleteNetwork"
      },
      {
        "role": "ServiceUser",
        "privilege": "DeleteNetworkUser"
      },
      {
        "role": "ServiceUser",
        "privilege": "DeleteWiFi"
      },
      {
        "role": "ServiceUser",
        "privilege": "MapDGWiFi"
      },
      {
        "role": "ServiceUser",
        "privilege": "MapDeviceDG"
      },
      {
        "role": "ServiceUser",
        "privilege": "ModifyDevice"
      },
      {
        "role": "ServiceUser",
        "privilege": "ModifyDeviceGroup"
      },
      {
        "role": "ServiceUser",
        "privilege": "ModifyDeviceUser"
      },
      {
        "role": "ServiceUser",
        "privilege": "ModifyHardwareProfile"
      },
      {
        "role": "ServiceUser",
        "privilege": "ModifyNetwork"
      },
      {
        "role": "ServiceUser",
        "privilege": "ModifyNetworkUser"
      },
      {
        "role": "ServiceUser",
        "privilege": "ModifyService"
      },
      {
        "role": "ServiceUser",
        "privilege": "ModifyServiceUser"
      },
      {
        "role": "ServiceUser",
        "privilege": "ModifyWiFi"
      },
      {
        "role": "ServiceUser",
        "privilege": "UnmapDGWiFi"
      },
      {
        "role": "ServiceUser",
        "privilege": "ViewDevice"
      },
      {
        "role": "ServiceUser",
        "privilege": "ViewDeviceGroup"
      },
      {
        "role": "ServiceUser",
        "privilege": "ViewDeviceUser"
      },
      {
        "role": "ServiceUser",
        "privilege": "ViewHardware"
      },
      {
        "role": "ServiceUser",
        "privilege": "ViewHardwareProfile"
      },
      {
        "role": "ServiceUser",
        "privilege": "ViewNetwork"
      },
      {
        "role": "ServiceUser",
        "privilege": "ViewNetworkUser"
      },
      {
        "role": "ServiceUser",
        "privilege": "ViewService"
      },
      {
        "role": "ServiceUser",
        "privilege": "ViewServiceUser"
      },
      {
        "role": "ServiceUser",
        "privilege": "ViewWiFi"
      },
      {
        "role": "GlobalUser",
        "privilege": "ViewNetwork"
      },
      {
        "role": "GlobalUser",
        "privilege": "ViewNetworkUser"
      },
      {
        "role": "GlobalUser",
        "privilege": "GetFirmware"
      },
      {
        "role": "GlobalUser",
        "privilege": "ViewWiFi"
      },
      {
        "role": "GlobalUser",
        "privilege": "ViewDevice"
      },
      {
        "role": "GlobalUser",
        "privilege": "AssignDevices"
      },
      {
        "role": "GlobalUser",
        "privilege": "ModifyDeviceGroup"
      },
      {
        "role": "GlobalUser",
        "privilege": "FirmwareUpload"
      },
      {
        "role": "GlobalUser",
        "privilege": "AddDeviceUser"
      },
      {
        "role": "GlobalUser",
        "privilege": "ViewDeviceGroup"
      },
      {
        "role": "GlobalUser",
        "privilege": "MapHardwareService"
      },
      {
        "role": "GlobalUser",
        "privilege": "AssignDevicesToHP"
      },
      {
        "role": "GlobalUser",
        "privilege": "ModifyHardware"
      },
      {
        "role": "GlobalUser",
        "privilege": "ModifyHardwareProfile"
      },
      {
        "role": "GlobalUser",
        "privilege": "MapDGWiFi"
      },
      {
        "role": "GlobalUser",
        "privilege": "DeleteWiFi"
      },
      {
        "role": "GlobalUser",
        "privilege": "UnAssignDevices"
      },
      {
        "role": "GlobalUser",
        "privilege": "AddDevice"
      },
      {
        "role": "GlobalUser",
        "privilege": "MapDeviceDG"
      },
      {
        "role": "GlobalUser",
        "privilege": "ViewGlobalUser"
      },
      {
        "role": "GlobalUser",
        "privilege": "AddServiceUser"
      },
      {
        "role": "GlobalUser",
        "privilege": "DeleteHardware"
      },
      {
        "role": "GlobalUser",
        "privilege": "ModifyServiceUser"
      },
      {
        "role": "GlobalUser",
        "privilege": "ModifyService"
      },
      {
        "role": "GlobalUser",
        "privilege": "DeleteService"
      },
      {
        "role": "GlobalUser",
        "privilege": "UnmapDGWiFi"
      },
      {
        "role": "GlobalUser",
        "privilege": "DeleteDevice"
      },
      {
        "role": "GlobalUser",
        "privilege": "ModifyNetworkUser"
      },
      {
        "role": "GlobalUser",
        "privilege": "AddNetwork"
      },
      {
        "role": "GlobalUser",
        "privilege": "AddService"
      },
      {
        "role": "GlobalUser",
        "privilege": "DeleteDeviceUser"
      },
      {
        "role": "GlobalUser",
        "privilege": "DeleteDeviceGroup"
      },
      {
        "role": "GlobalUser",
        "privilege": "DeleteNetworkUser"
      },
      {
        "role": "GlobalUser",
        "privilege": "AddNetworkUser"
      },
      {
        "role": "GlobalUser",
        "privilege": "ViewServiceUser"
      },
      {
        "role": "GlobalUser",
        "privilege": "DeleteHardwareProfile"
      },
      {
        "role": "GlobalUser",
        "privilege": "ViewService"
      },
      {
        "role": "GlobalUser",
        "privilege": "ModifyDevice"
      },
      {
        "role": "GlobalUser",
        "privilege": "ViewDeviceUser"
      },
      {
        "role": "GlobalUser",
        "privilege": "DeleteNetwork"
      },
      {
        "role": "GlobalUser",
        "privilege": "ViewHardwareProfile"
      },
      {
        "role": "GlobalUser",
        "privilege": "AddHardwareProfile"
      },
      {
        "role": "GlobalUser",
        "privilege": "AddWiFi"
      },
      {
        "role": "GlobalUser",
        "privilege": "ModifyNetwork"
      },
      {
        "role": "GlobalUser",
        "privilege": "UnmapHardwareService"
      },
      {
        "role": "GlobalUser",
        "privilege": "ModifyWiFi"
      },
      {
        "role": "GlobalUser",
        "privilege": "DeleteServiceUser"
      },
      {
        "role": "GlobalUser",
        "privilege": "ModifyDeviceUser"
      },
      {
        "role": "GlobalUser",
        "privilege": "AddHardware"
      },
      {
        "role": "GlobalUser",
        "privilege": "AddDeviceGroup"
      },
      {
        "role": "GlobalUser",
        "privilege": "ViewHardware"
      }
    ]
  }
}